[gd_resource type="AudioBusLayout" format=3 uid="uid://316wk838obdb"]

[resource]
bus/0/volume_db = -21.8264
bus/1/name = &"BGM"
bus/1/solo = false
bus/1/mute = false
bus/1/bypass_fx = false
bus/1/volume_db = 0.0694828
bus/1/send = &"Master"
bus/2/name = &"SE"
bus/2/solo = false
bus/2/mute = false
bus/2/bypass_fx = false
bus/2/volume_db = 0.0
bus/2/send = &"Master"
bus/3/name = &"ME"
bus/3/solo = false
bus/3/mute = false
bus/3/bypass_fx = false
bus/3/volume_db = 0.0
bus/3/send = &"Master"
