[gd_resource type="Resource" script_class="Character" load_steps=2 format=3 uid="uid://c1h2tk1otx0iu"]

[ext_resource type="Script" path="res://Scripts/Resources/player_resource.gd" id="1_hoci7"]

[resource]
script = ExtResource("1_hoci7")
character_name = "Snowhite"
agl = 3
str = 1
def = 2
points = 0
