[gd_scene load_steps=2 format=2]

[ext_resource path="res://Scripts/GammaController/GammaController.gd" type="Script" id=1]

[node name="GammaController" type="CanvasLayer"]
script = ExtResource( 1 )

[node name="Gamma" type="ColorRect" parent="."]
anchor_right = 1.0
anchor_bottom = 1.0
mouse_filter = 2
color = Color( 1, 1, 1, 0 )
